{
  "windowsfunction": {
    "count": 47,
    "next": "http://172.16.200.37:8023/api/v1.3/windowsfunction/?limit=20&offset=20",
    "previous": null,
    "results": [
      {
        "id": 9,
        "sdkname": "EloamView",
        "name": "设备",
        "index": 0,
        "create_at": "2021-06-19T14:26:43.648566+08:00"
      },
      {
        "id": 33,
        "sdkname": "EloamDll",
        "name": "全局函数",
        "index": 0,
        "create_at": "2021-06-27T20:18:57.818909+08:00"
      },
      {
        "id": 1,
        "sdkname": "WebCamera",
        "name": "高拍仪",
        "index": 1,
        "create_at": "2021-06-08T17:55:18.160597+08:00"
      },
      {
        "id": 10,
        "sdkname": "EloamView",
        "name": "图像",
        "index": 1,
        "create_at": "2021-06-19T14:27:54.060123+08:00"
      },
      {
        "id": 34,
        "sdkname": "EloamDll",
        "name": "图像函数",
        "index": 1,
        "create_at": "2021-06-27T20:19:16.723022+08:00"
      },
      {
        "id": 2,
        "sdkname": "WebCamera",
        "name": "卡证读取",
        "index": 2,
        "create_at": "2021-06-08T17:55:32.775779+08:00"
      },
      {
        "id": 11,
        "sdkname": "EloamView",
        "name": "拍照",
        "index": 2,
        "create_at": "2021-06-19T15:21:25.487829+08:00"
      },
      {
        "id": 35,
        "sdkname": "EloamDll",
        "name": "内存对象函数",
        "index": 2,
        "create_at": "2021-06-27T20:19:30.339486+08:00"
      },
      {
        "id": 4,
        "sdkname": "WebCamera",
        "name": "人脸",
        "index": 3,
        "create_at": "2021-06-08T17:55:47.697064+08:00"
      },
      {
        "id": 12,
        "sdkname": "EloamView",
        "name": "录像",
        "index": 3,
        "create_at": "2021-06-19T15:41:33.863586+08:00"
      },
      {
        "id": 36,
        "sdkname": "EloamDll",
        "name": "图像列表函数",
        "index": 3,
        "create_at": "2021-06-27T20:19:42.924101+08:00"
      },
      {
        "id": 5,
        "sdkname": "WebCamera",
        "name": "OCR",
        "index": 4,
        "create_at": "2021-06-08T17:55:53.688208+08:00"
      },
      {
        "id": 13,
        "sdkname": "EloamView",
        "name": "PDF",
        "index": 4,
        "create_at": "2021-06-19T15:44:19.881560+08:00"
      },
      {
        "id": 37,
        "sdkname": "EloamDll",
        "name": "HTTP函数",
        "index": 4,
        "create_at": "2021-06-27T20:19:52.716851+08:00"
      },
      {
        "id": 14,
        "sdkname": "EloamView",
        "name": "功能操作",
        "index": 5,
        "create_at": "2021-06-19T15:45:49.342881+08:00"
      },
      {
        "id": 31,
        "sdkname": "WebCamera",
        "name": "设备",
        "index": 5,
        "create_at": "2021-06-19T20:58:52.244335+08:00"
      },
      {
        "id": 38,
        "sdkname": "EloamDll",
        "name": "FTP函数",
        "index": 5,
        "create_at": "2021-06-27T20:20:03.273008+08:00"
      },
      {
        "id": 15,
        "sdkname": "EloamView",
        "name": "水印",
        "index": 6,
        "create_at": "2021-06-19T15:48:02.255498+08:00"
      },
      {
        "id": 32,
        "sdkname": "WebCamera",
        "name": "串口",
        "index": 6,
        "create_at": "2021-06-19T20:59:03.355202+08:00"
      },
      {
        "id": 39,
        "sdkname": "EloamDll",
        "name": "设备函数",
        "index": 6,
        "create_at": "2021-06-27T20:20:13.741306+08:00"
      }
    ]
  },
  "windows": {
    "unt": 522,
    "next": "http://172.16.200.37:8023/api/v1.3/windowsapi/?limit=20&offset=20",
    "previous": null,
    "results": [
      {
        "id": 1,
        "productname": "WebCamera",
        "functionname": "高拍仪",
        "name": "获取摄像头视频数据",
        "desc": "<pre>\r\n<code>Description:    获取主摄像头视频数据\r\nURL:            http://127.0.0.1:38088/video=stream&amp;camidx=0\r\nMethod:         GET</code></pre>\r\n\r\n<pre>\r\n<code>Description:    获取副摄像头视频数据\r\nURl:            http://127.0.0.1:38088/video=stream&amp;camidx=1\r\nMethod:         GET</code></pre>\r\n\r\n<p>&nbsp;</p>",
        "index": 0,
        "create_at": "2021-06-08T20:27:07.228205+08:00",
        "update_at": "2021-08-11T16:02:19.786350+08:00"
      },
      {
        "id": 124,
        "productname": "EloamDll",
        "functionname": "全局函数",
        "name": "获取摄像头视频数据",
        "desc": "获取摄像头视频数据",
        "index": 0,
        "create_at": "2021-06-08T20:27:07.228205+08:00",
        "update_at": "2021-08-11T16:02:19.786350+08:00"
      },
      {
        "id": 5,
        "productname": "EloamView",
        "functionname": "设备",
        "name": "初始化设备",
        "desc": "<pre>\r\n<code>Function:       BOOL InitDev();\r\nDescription:    初始化设备\r\nInput:          无\r\nReturn:         TRUE表示成功 FALSE表示失败\r\nOthers:         无\r\n</code></pre>\r\n\r\n<p>&nbsp;</p>",
        "index": 0,
        "create_at": "2021-06-19T14:47:52.436572+08:00",
        "update_at": "2021-08-11T17:19:46.091877+08:00"
      },
      {
        "id": 11,
        "productname": "EloamView",
        "functionname": "图像",
        "name": "获取摄像头分辨率",
        "desc": "<pre>\r\n<code>Function:       long GetResolutionNumber(long iDev);\r\nDescription:    获取指定摄像头所有分辨率数量\r\nInput:          iDev：摄像头索引 0表示主摄像头 1表示副摄像头\r\nReturn:         返回所有分辨率数量,失败返回-1\r\nOthers:         无</code></pre>\r\n\r\n<p>&nbsp;</p>",
        "index": 0,
        "create_at": "2021-06-19T15:07:33.636150+08:00",
        "update_at": "2021-08-11T17:22:50.143997+08:00"
      },
      {
        "id": 26,
        "productname": "EloamView",
        "functionname": "拍照",
        "name": "拍照",
        "desc": "<pre>\r\n<code>Function:       BOOL Scan(LONG iDev, BSTR filePath, LONG flag);\r\nDescription:    拍照\r\nInput:          iDev：摄像头索引 0表示主摄像头 1表示副摄像头\r\n                filePath：保存文件路径\r\n                flag：一般为 0（即 0x0100），对于 jpg 格式，0x0080 表示高质量（以100:1保存），0x0100表示较高质量（以 75:1 保存），0x0200 表示中等质量（以 50:1 保存）,0x0400 表示较差质量（以 25:1 保存），0x0800 表示差质量（以 10:1 保存）,1-100  的十进制整数 x（以 x:1保存）\r\nReturn:         TRUE表示成功 FALSE表示失败\r\nOthers:         无</code></pre>\r\n\r\n<p>&nbsp;</p>",
        "index": 0,
        "create_at": "2021-06-19T15:22:06.640789+08:00",
        "update_at": "2021-08-11T17:27:07.760663+08:00"
      },
      {
        "id": 36,
        "productname": "EloamView",
        "functionname": "录像",
        "name": "启用视频录像",
        "desc": "<pre>\r\n<code>Function:       BOOL StartRecord(LPCTSTR filePath, LONG iFrameRate);\r\nDescription:    启用视频录像\r\nInput:          filePath：文件保存位置\r\n                iFrameRate：帧率\r\nReturn:         成功返回True 失败返回False\r\nOthers:         无\r\n</code></pre>\r\n\r\n<p>&nbsp;</p>",
        "index": 0,
        "create_at": "2021-06-19T15:41:54.072505+08:00",
        "update_at": "2021-08-11T17:29:57.985422+08:00"
      },
      {
        "id": 38,
        "productname": "EloamView",
        "functionname": "PDF",
        "name": "生成pdf文件",
        "desc": "<pre>\r\n<code>Function:       BOOL  SaveToPdfEx(LPCTSTR PdfPath, LPCTSTR FilePathList, LONG FileCount);\r\nDescription:    生成pdf文件     \r\nInput:          PdfPath 保存的pdf路径文件名\r\nFilePathList 需要目标图片路径，以“+”为间隔符，如“C:\\\\1.jpg+C:\\\\2.jpg+C:\\\\3.jpg+”\r\n                FileCount 要保存的图像的数目                  \r\nReturn:         TRUE表示成功 FALSE表示失败</code></pre>\r\n\r\n<p>&nbsp;</p>",
        "index": 0,
        "create_at": "2021-06-19T15:44:32.464475+08:00",
        "update_at": "2021-08-11T17:32:32.246042+08:00"
      },
      {
        "id": 40,
        "productname": "EloamView",
        "functionname": "功能操作",
        "name": "删除本地文件",
        "desc": "<pre>\r\n<code>Function:       BOOL DeleteFile(LPCTSTR fileName);\r\nDescription:    删除本地文件\r\nInput:          fileName：本地文件路径\r\nReturn:         TRUE表示成功 FALSE表示失败\r\nOthers:         无</code></pre>\r\n\r\n<p>&nbsp;</p>",
        "index": 0,
        "create_at": "2021-06-19T15:46:25.079467+08:00",
        "update_at": "2021-08-11T17:33:05.431472+08:00"
      },
      {
        "id": 43,
        "productname": "EloamView",
        "functionname": "水印",
        "name": "设置高拍仪水印",
        "desc": "<pre>\r\n<code>Function:       BOOL  AddWaterMark(LONG SetFlat, LONG Pos, LPCTSTR Content, LPCTSTR Clr, LONG Weight);\r\nDescription:    设置高拍仪水印\r\nInput:          SetFlat: 水印开启标志，0为关闭，1以默认参数设置2以自定义参数设置\r\n                Pos: 位置， 1左上, 2右上, 3左下, 4右下，5中心\r\n                Content: 绘制的文本\r\n                Clr: 颜色，RGB色值，如黑色: “000000000” 纯红：“255000000”\r\n                Weight： 透明度, 取值范围0-255, 0表示完全不透明， 为255表示完全透明\r\nOutput:         无   \r\nReturn:         TRUE表示成功 FALSE表示失败\r\nOthers:         无</code></pre>\r\n\r\n<p>&nbsp;</p>",
        "index": 0,
        "create_at": "2021-06-19T15:48:55.137843+08:00",
        "update_at": "2021-08-11T17:33:54.309689+08:00"
      },
      {
        "id": 47,
        "productname": "EloamView",
        "functionname": "条码，二维码识别",
        "name": "获取条码，二维码的数量",
        "desc": "<pre>\r\n<code>Function:       LONG GetBarcodeCount(LONG iDev, BSTR filePath, BOOL bFile);\r\nDescription:    获取条码，二维码的数量\r\nInput:          iDev 摄像头索引 0表示主摄像头 1表示副摄像头\r\n                filePath 图片文件全路径(若是识别视频画面条码则可为\"\")\r\n                bFile true表示根据识别传入图片的条码 false表示识别视频画面条码\r\nReturn:         返回条码数量\r\nOthers:         无</code></pre>\r\n\r\n<p>&nbsp;</p>",
        "index": 0,
        "create_at": "2021-06-19T15:59:22.356994+08:00",
        "update_at": "2021-08-11T17:34:55.490346+08:00"
      },
      {
        "id": 49,
        "productname": "EloamView",
        "functionname": "人脸识别",
        "name": "人证比对（单次，图片与图片比对）",
        "desc": "<pre>\r\n<code>Function:       LONG CompareFaceDetect(LPCTSTR imgPath1, LPCTSTR imgPath2);\r\nDescription:    人证比对（单次，图片与图片比对）\r\nInput:          imgPath1 图片1路径 imgPath2 图片2路径\r\nReturn:         返回比对结果\r\nOthers:         无</code></pre>\r\n\r\n<p>&nbsp;</p>",
        "index": 0,
        "create_at": "2021-06-19T16:01:15.479149+08:00",
        "update_at": "2021-08-11T17:35:32.189996+08:00"
      },
      {
        "id": 58,
        "productname": "EloamView",
        "functionname": "身份证",
        "name": "初始化ID卡阅读器",
        "desc": "<pre>\r\n<code>Function:       BOOL InitIdCard(void);\r\nDescription:    初始化ID卡阅读器\r\nInput:          无\r\nReturn:         TRUE表示成功 FALSE表示失败\r\nOthers:         无\r\n</code></pre>\r\n\r\n<p>&nbsp;</p>",
        "index": 0,
        "create_at": "2021-06-19T16:12:53.674985+08:00",
        "update_at": "2021-08-11T17:37:51.366162+08:00"
      },
      {
        "id": 69,
        "productname": "EloamView",
        "functionname": "IC卡",
        "name": "初始化IC卡阅读器",
        "desc": "<pre>\r\n<code>Function:       BOOLInitICReader(void)\r\nDescription:    初始化IC卡阅读器\r\nInput:          无\r\nOutput:         无   \r\nReturn:         TRUE表示成功 FALSE表示失败\r\nOthers:         无</code></pre>\r\n\r\n<p>&nbsp;</p>",
        "index": 0,
        "create_at": "2021-06-19T16:20:17.164077+08:00",
        "update_at": "2021-08-11T17:40:47.588552+08:00"
      },
      {
        "id": 74,
        "productname": "EloamView",
        "functionname": "磁条刷卡",
        "name": "初始化磁条刷卡阅读器",
        "desc": "<pre>\r\n<code>Function:       BOOLInitMagneticCard(void);\r\nDescription:    初始化磁条刷卡阅读器\r\nInput:          无\r\nOutput:         无   \r\nReturn:         TRUE表示成功 FALSE表示失败\r\nOthers:         无</code></pre>\r\n\r\n<p>&nbsp;</p>",
        "index": 0,
        "create_at": "2021-06-19T16:24:06.603526+08:00",
        "update_at": "2021-08-11T17:43:04.396950+08:00"
      },
      {
        "id": 79,
        "productname": "EloamView",
        "functionname": "OCR识别",
        "name": "Ocr初始化",
        "desc": "<pre>\r\n<code>Function:       BOOL InitOcr(void)\r\nDescription:    Ocr初始化      \r\nInput:          无\r\nOutput:         无   \r\nReturn:         TRUE表示成功 FALSE表示失败</code></pre>\r\n\r\n<p>&nbsp;</p>",
        "index": 0,
        "create_at": "2021-06-19T16:27:25.331489+08:00",
        "update_at": "2021-08-11T17:44:26.966892+08:00"
      },
      {
        "id": 83,
        "productname": "EloamView",
        "functionname": "模板识别（身份证和护照）",
        "name": "模板OCR初始化",
        "desc": "<pre>\r\n<code>Function:       BOOL InitTemplOcr(void);\r\nDescription:    模板OCR初始化    \r\nInput:          无\r\nOutput:         无   \r\nReturn:         TRUE表示成功 FALSE表示失败\r\nOthers:         无</code></pre>\r\n\r\n<p>&nbsp;</p>",
        "index": 0,
        "create_at": "2021-06-19T16:31:16.978287+08:00",
        "update_at": "2021-08-11T17:45:22.077545+08:00"
      },
      {
        "id": 86,
        "productname": "EloamView",
        "functionname": "发票识别",
        "name": "发票识别初始化",
        "desc": "<pre>\r\n<code>Function:       BOOL InitInvoice(void);\r\nDescription:    发票识别初始化 \r\nInput:          无\r\nOutput:         无   \r\nReturn:         TRUE表示成功 FALSE表示失败\r\nOthers:         无</code></pre>\r\n\r\n<p>&nbsp;</p>",
        "index": 0,
        "create_at": "2021-06-19T16:34:15.937358+08:00",
        "update_at": "2021-08-11T17:46:04.885690+08:00"
      },
      {
        "id": 90,
        "productname": "EloamView",
        "functionname": "书籍展平",
        "name": "书籍自动展平",
        "desc": "<pre>\r\n<code>Function:       BOOL BookAutoFlat(LPCTSTR Source, LPCTSTR Processed_Left, LPCTSTR Processed_Right, LONG RemoveFinger, LONG DoublePage);\r\nDescription:    书籍自动展平\r\nInput:          Source 源图片路径 \r\n                Processed_Left 展平后左页图片保存路径 \r\n                Processed_Right 展平后右页图片保存路径 \r\n                RemoveFinger 是否去手指 0 否；1 是 \r\n                DoublePage 是否左右页保存成两张图片 0 否；1 是\r\nOutput:         无   \r\nReturn:         TRUE表示成功 FALSE表示失败\r\nOthers:         无</code></pre>\r\n\r\n<p>&nbsp;</p>",
        "index": 0,
        "create_at": "2021-06-19T16:36:43.641896+08:00",
        "update_at": "2021-08-11T17:47:08.509301+08:00"
      },
      {
        "id": 91,
        "productname": "EloamView",
        "functionname": "摄像头硬件参数获取和设置",
        "name": "获取调节视频数据",
        "desc": "<pre>\r\n<code>Function:       LONG GetVideoProcAmp(LONG iDev, LONG nProp, LONG nValue);\r\nDescription:    获取调节视频数据\r\nInput:          iDev 摄像头索引0表示主摄像头 1表示副摄像头\r\n                nProp视频的各个属性，0x1表示亮度，0x2表示对比度，0x3表示饱和度，0x4表示色调, 0x5表示清晰度，0x6表示伽马，0x7表示白平衡，0x8表示逆光对比，0x9表示启用颜色， 0xA 表示增益 \r\n                    nValuenProp对应的值的类型，0x1表示最小值，0x2表示最大值，0x3表示步长，0x4表示默 认值，0x5表示实际值，0x6表示是否自动设置 \r\nOutput:         无   \r\nReturn:         返回属性对应值\r\nOthers:         无</code></pre>\r\n\r\n<p>&nbsp;</p>",
        "index": 0,
        "create_at": "2021-06-19T16:39:19.921475+08:00",
        "update_at": "2021-08-11T17:48:49.535622+08:00"
      },
      {
        "id": 95,
        "productname": "EloamView",
        "functionname": "条码（二维码）识读器",
        "name": "初始化扫码器设备",
        "desc": "<pre>\r\n<code>Function:       BOOL InitScanner(void);\r\nDescription:    初始化扫码器设备\r\nInput:          无\r\nOutput:         无   \r\nReturn:         成功返回TRUE，失败返回FALSE\r\nOthers:         无</code></pre>\r\n\r\n<p>&nbsp;</p>",
        "index": 0,
        "create_at": "2021-06-19T16:42:07.321986+08:00",
        "update_at": "2021-08-11T17:50:10.566051+08:00"
      },
      {
        "id": 101,
        "productname": "EloamView",
        "functionname": "加密（部分设备适用）",
        "name": "设置设备唯一编号",
        "desc": "<pre>\r\n<code>Function:       BOOL SetEncryptedNumber(LONG SetFlat, LPCTSTR EncryptedNumber);\r\nDescription:    设置设备唯一编号\r\nInput:          SetFlat设置标志，0为关闭，1为开启\r\n                EncryptedNumber要设置的设备编号\r\nOutput:         无   \r\nReturn:         成功返回TRUE，失败返回FALSE\r\nOthers:         配合硬件烧录编号，用于控制摄像头开关</code></pre>\r\n\r\n<p>&nbsp;</p>",
        "index": 0,
        "create_at": "2021-06-19T16:46:28.994638+08:00",
        "update_at": "2021-08-11T17:51:56.900044+08:00"
      }
    ]
  },
  "linux": {
    "count": 7,
    "next": null,
    "previous": null,
    "results": [
      {
        "id": 1,
        "linux_type": "AMD",
        "name": "良田_中标麒麟X86_高拍仪+纠偏旋转+二代证+身份证正反面合并_Web控件_V1.3.7.05",
        "download": "https://console.box.lenovo.com/l/LHiuNS",
        "desc": "",
        "create_at": "2021-08-16T16:43:49.741074+08:00",
        "update_at": "2021-08-16T16:43:49.741074+08:00"
      },
      {
        "id": 2,
        "linux_type": "AMD",
        "name": "良田_UOSX86_高拍仪+纠偏旋转+二代证+身份证正反面合并_Web控件_V1.3.7.05",
        "download": "https://console.box.lenovo.com/l/LHiuNq",
        "desc": "",
        "create_at": "2021-08-16T16:56:20.715700+08:00",
        "update_at": "2021-08-16T16:56:20.715700+08:00"
      },
      {
        "id": 3,
        "linux_type": "AMD",
        "name": "良田_银河麒麟X86_高拍仪+纠偏旋转+二代证+身份证正反面合并_Web控件_V1.3.7.05",
        "download": "https://console.box.lenovo.com/l/a0OTZL",
        "desc": "",
        "create_at": "2021-08-16T16:56:45.834944+08:00",
        "update_at": "2021-08-16T16:56:45.834944+08:00"
      },
      {
        "id": 4,
        "linux_type": "ARM",
        "name": "良田_UOS飞腾_高拍仪+纠偏旋转+二代证+身份证正反面合并_Web控件_V1.3.7.05",
        "download": "https://console.box.lenovo.com/l/e1veEs",
        "desc": "",
        "create_at": "2021-08-16T16:58:07.482665+08:00",
        "update_at": "2021-08-16T16:58:07.482665+08:00"
      },
      {
        "id": 5,
        "linux_type": "ARM",
        "name": "良田_银河麒麟飞腾_高拍仪+纠偏旋转+二代证+身份证正反面合并_Web控件_V1.3.7.05",
        "download": "https://console.box.lenovo.com/l/5HhCgX",
        "desc": "",
        "create_at": "2021-08-16T16:58:31.139203+08:00",
        "update_at": "2021-08-16T16:58:31.139203+08:00"
      },
      {
        "id": 6,
        "linux_type": "MIPS",
        "name": "良田_kylin龙芯_高拍仪+纠偏旋转+二代证+身份证正反面合并_Web控件_V1.3.7.05",
        "download": "https://console.box.lenovo.com/l/I00yvO",
        "desc": "",
        "create_at": "2021-08-16T16:59:47.634702+08:00",
        "update_at": "2021-08-16T16:59:47.634702+08:00"
      },
      {
        "id": 7,
        "linux_type": "MIPS",
        "name": "良田_UOS龙芯_高拍仪+纠偏旋转+二代证+身份证正反面合并_Web控件_V1.3.7.05",
        "download": "https://console.box.lenovo.com/l/wJLLh1",
        "desc": "",
        "create_at": "2021-08-16T17:00:06.595090+08:00",
        "update_at": "2021-08-16T17:00:06.595090+08:00"
      }
    ]
  },
  "android": {
    "count": 8,
    "next": null,
    "previous": null,
    "results": [
      {
        "id": 1,
        "android_type": "APP",
        "name": "ocr",
        "download": "https://console.box.lenovo.com/l/951WxV",
        "desc": "",
        "create_at": "2021-08-16T17:36:48.011991+08:00",
        "update_at": "2021-08-16T17:36:48.011991+08:00"
      },
      {
        "id": 2,
        "android_type": "APP",
        "name": "签名+评价",
        "download": "https://console.box.lenovo.com/l/l07FJm",
        "desc": "",
        "create_at": "2021-08-16T17:37:30.644210+08:00",
        "update_at": "2021-08-16T17:37:30.644210+08:00"
      },
      {
        "id": 3,
        "android_type": "APP",
        "name": "打开高拍仪",
        "download": "https://console.box.lenovo.com/l/951WxZ",
        "desc": "",
        "create_at": "2021-08-16T17:37:51.980458+08:00",
        "update_at": "2021-08-16T17:37:51.980458+08:00"
      },
      {
        "id": 4,
        "android_type": "APP",
        "name": "四合一",
        "download": "https://console.box.lenovo.com/l/31LtwC",
        "desc": "",
        "create_at": "2021-08-16T17:38:30.642972+08:00",
        "update_at": "2021-08-16T17:38:30.642972+08:00"
      },
      {
        "id": 5,
        "android_type": "APP",
        "name": "身份证",
        "download": "https://console.box.lenovo.com/l/Eny4LS",
        "desc": "",
        "create_at": "2021-08-16T17:39:14.827749+08:00",
        "update_at": "2021-08-16T17:39:14.827749+08:00"
      },
      {
        "id": 6,
        "android_type": "APP",
        "name": "纠偏裁边",
        "download": "https://console.box.lenovo.com/l/k1qTPE",
        "desc": "",
        "create_at": "2021-08-16T17:40:35.107862+08:00",
        "update_at": "2021-08-16T17:40:35.107862+08:00"
      },
      {
        "id": 7,
        "android_type": "APP",
        "name": "IC加密-人证比对",
        "download": "https://console.box.lenovo.com/l/2n6wo7",
        "desc": "",
        "create_at": "2021-08-16T17:42:09.092373+08:00",
        "update_at": "2021-08-16T17:42:09.092373+08:00"
      },
      {
        "id": 16,
        "android_type": "APP",
        "name": "指纹",
        "download": "https://console.box.lenovo.com/l/Kua1FG",
        "desc": "",
        "create_at": "2021-08-16T17:55:45.588212+08:00",
        "update_at": "2021-08-16T17:55:45.588212+08:00"
      }
    ]
  }
}